{
    "Actor": {
        "types": ["character", "npc"],
        "templates": {
            "identity": {
                "identity": {
                    "clan": "",
                    "family": "",
                    "school": "",
                    "school_rank": 1,
                    "roles": ""
                }
            },
            "rings": {
                "rings": {
                    "earth": 1,
                    "air": 1,
                    "water": 1,
                    "fire": 1,
                    "void": 1
                }
            },
            "social": {
                "social": {
                    "honor": 0,
                    "glory": 0,
                    "status": 0,
                    "ninjo": "",
                    "giri": "",
                    "titles": ""
                }
            },
            "skills": {
                "skills": {
                    "artisan": {
                        "aesthetics": 0,
                        "composition": 0,
                        "design": 0,
                        "smithing": 0
                    },
                    "martial": {
                        "fitness": 0,
                        "melee": 0,
                        "ranged": 0,
                        "unarmed": 0,
                        "meditation": 0,
                        "tactics": 0
                    },
                    "scholar": {
                        "culture": 0,
                        "government": 0,
                        "medicine": 0,
                        "sentiment": 0,
                        "theology": 0
                    },
                    "social": {
                        "command": 0,
                        "courtesy": 0,
                        "games": 0,
                        "performance": 0
                    },
                    "trade": {
                        "commerce": 0,
                        "labor": 0,
                        "seafaring": 0,
                        "skulduggery": 0,
                        "survival": 0
                    }
                }
            },
            "conflict": {
                "endurance": 0,
                "composure": 0,
                "focus": 0,
                "vigilance": 0,
                "void_points": {
                    "max": 1,
                    "value": 0
                },
                "fatigue": {
                    "max": 1,
                    "value": 0
                },
                "strife": {
                    "max": 1,
                    "value": 0
                },
                "stance": "void",
                "prepared": true
            },
            "advancement": {
                "xp_total": 0,
                "xp_spent": 0,
                "xp_saved": 0
            },
            "techniques": {
                "techniques": {
                    "kata": false,
                    "kiho": false,
                    "invocation": false,
                    "ritual": false,
                    "shuji": false,
                    "maho": false,
                    "ninjutsu": false,
                    "list": []
                }
            }
        },
        "character": {
            "templates": ["identity", "rings", "social", "skills", "techniques", "conflict", "advancement"],
            "zeni": 0,
            "notes": "",
            "twenty_questions": {}
        },
        "npc": {
            "templates": ["rings", "social", "techniques", "conflict"],
            "type": "minion",
            "attitude": "",
            "notes": "",
            "conflict_rank": {
                "martial": 0,
                "social": 0
            },
            "rings_affinities": {
                "strength": {
                    "ring": "fire",
                    "value": 2
                },
                "weakness": {
                    "ring": "water",
                    "value": -2
                }
            },
            "skills": {
                "artisan": 0,
                "martial": 0,
                "scholar": 0,
                "social": 0,
                "trade": 0
            }
        }
    },
    "Item": {
        "types": ["item", "armor", "weapon", "technique", "property", "peculiarity", "advancement"],
        "templates": {
            "basics": {
                "book_reference": "",
                "description": ""
            },
            "advancement": {
                "in_curriculum": false,
                "xp_used": 3,
                "rank": 1,
                "bought_at_rank": 1,
                "ring": "void"
            },
            "item": {
                "equipped": false,
                "quantity": 1,
                "weight": 0,
                "rarity": 0,
                "zeni": 0,
                "properties": []
            }
        },
        "item": {
            "templates": ["basics", "item"]
        },
        "armor": {
            "templates": ["basics", "item"],
            "armor": {
                "physical": 0,
                "supernatural": 0
            }
        },
        "weapon": {
            "templates": ["basics", "item"],
            "category": "",
            "skill": "melee",
            "readied": false,
            "range": 0,
            "damage": 0,
            "deadliness": 0,
            "grip_1": "",
            "grip_2": ""
        },
        "technique": {
            "templates": ["basics", "advancement"],
            "technique_type": "kata",
            "xp_cost": 3
        },
        "property": {
            "templates": ["basics"]
        },
        "peculiarity": {
            "templates": ["basics", "advancement"],
            "peculiarity_type": "distinction",
            "types": ""
        },
        "advancement": {
            "templates": ["basics", "advancement"],
            "advancement_type": "skill",
            "skill": ""
        }
    }
}
